{
  "canvas": {
    "version": "2.1.0",
    "width": 2000,
    "height": 2000,
    "scrollTop": 0,
    "scrollLeft": -6.00000014305126,
    "zoomLevel": 1,
    "show": {
      "tableComment": true,
      "columnComment": true,
      "columnDataType": true,
      "columnDefault": true,
      "columnAutoIncrement": false,
      "columnPrimaryKey": true,
      "columnUnique": false,
      "columnNotNull": true,
      "relationship": true
    },
    "database": "MySQL",
    "databaseName": "",
    "canvasType": "ERD",
    "language": "GraphQL",
    "tableCase": "pascalCase",
    "columnCase": "camelCase",
    "highlightTheme": "VS2015",
    "bracketType": "none",
    "setting": {
      "relationshipDataTypeSync": true,
      "columnOrder": [
        "columnName",
        "columnDataType",
        "columnNotNull",
        "columnUnique",
        "columnAutoIncrement",
        "columnDefault",
        "columnComment"
      ]
    }
  },
  "table": {
    "tables": [
      {
        "name": "barang",
        "comment": "",
        "columns": [
          {
            "name": "id",
            "comment": "",
            "dataType": "INTEGER",
            "default": "",
            "option": {
              "autoIncrement": false,
              "primaryKey": true,
              "unique": false,
              "notNull": true
            },
            "ui": {
              "active": false,
              "pk": true,
              "fk": false,
              "pfk": false,
              "widthName": 60,
              "widthComment": 60,
              "widthDataType": 60,
              "widthDefault": 60
            },
            "id": "d5b16485-4424-4417-b2e4-e9b13635a694"
          },
          {
            "name": "id_tipe",
            "comment": "",
            "dataType": "INTEGER",
            "default": "",
            "option": {
              "autoIncrement": false,
              "primaryKey": false,
              "unique": false,
              "notNull": true
            },
            "ui": {
              "active": false,
              "pk": false,
              "fk": true,
              "pfk": false,
              "widthName": 60,
              "widthComment": 60,
              "widthDataType": 60,
              "widthDefault": 60
            },
            "id": "da41f13e-be46-4fe9-b2cc-750ab4ad9761"
          },
          {
            "name": "nama_barang",
            "comment": "",
            "dataType": "VARCHAR(30)",
            "default": "",
            "option": {
              "autoIncrement": false,
              "primaryKey": false,
              "unique": false,
              "notNull": true
            },
            "ui": {
              "active": false,
              "pk": false,
              "fk": false,
              "pfk": false,
              "widthName": 82,
              "widthComment": 60,
              "widthDataType": 87,
              "widthDefault": 60
            },
            "id": "37bb6aec-03d0-46a1-9dda-e9b3d2c55bb7"
          },
          {
            "name": "harga",
            "comment": "",
            "dataType": "BIGINT",
            "default": "",
            "option": {
              "autoIncrement": false,
              "primaryKey": false,
              "unique": false,
              "notNull": true
            },
            "ui": {
              "active": false,
              "pk": false,
              "fk": false,
              "pfk": false,
              "widthName": 60,
              "widthComment": 60,
              "widthDataType": 60,
              "widthDefault": 60
            },
            "id": "b1a27bd1-eb82-46f4-9dd1-78b075c7a732"
          }
        ],
        "ui": {
          "active": false,
          "left": 38.66666666666666,
          "top": 32,
          "zIndex": 2,
          "widthName": 60,
          "widthComment": 60
        },
        "id": "af6b70f4-1c4a-4a01-868a-f4a77ea6c6cd"
      },
      {
        "name": "tipe_barang",
        "comment": "",
        "columns": [
          {
            "name": "id",
            "comment": "",
            "dataType": "INTEGER",
            "default": "",
            "option": {
              "autoIncrement": false,
              "primaryKey": true,
              "unique": false,
              "notNull": true
            },
            "ui": {
              "active": false,
              "pk": true,
              "fk": false,
              "pfk": false,
              "widthName": 60,
              "widthComment": 60,
              "widthDataType": 60,
              "widthDefault": 60
            },
            "id": "d45483b2-7fc5-48f1-b2a6-2595f6a93538"
          },
          {
            "name": "tipe_barang",
            "comment": "",
            "dataType": "VARCHAR(50)",
            "default": "",
            "option": {
              "autoIncrement": false,
              "primaryKey": false,
              "unique": false,
              "notNull": true
            },
            "ui": {
              "active": false,
              "pk": false,
              "fk": false,
              "pfk": false,
              "widthName": 70,
              "widthComment": 60,
              "widthDataType": 87,
              "widthDefault": 60
            },
            "id": "0baffbd0-9618-49ca-98e1-138976024897"
          }
        ],
        "ui": {
          "active": false,
          "left": 41.19999988555917,
          "top": 283.60000022888187,
          "zIndex": 1,
          "widthName": 70,
          "widthComment": 60
        },
        "id": "90ff89e5-03fe-4cae-8ec6-e0778839939e"
      },
      {
        "name": "pelanggan",
        "comment": "",
        "columns": [
          {
            "name": "id",
            "comment": "",
            "dataType": "INTEGER",
            "default": "",
            "option": {
              "autoIncrement": false,
              "primaryKey": true,
              "unique": false,
              "notNull": true
            },
            "ui": {
              "active": false,
              "pk": true,
              "fk": false,
              "pfk": false,
              "widthName": 60,
              "widthComment": 60,
              "widthDataType": 60,
              "widthDefault": 60
            },
            "id": "c5dd9170-5659-4a08-bb08-a4169126270e"
          },
          {
            "name": "id_barang",
            "comment": "",
            "dataType": "INTEGER",
            "default": "",
            "option": {
              "autoIncrement": false,
              "primaryKey": false,
              "unique": false,
              "notNull": true
            },
            "ui": {
              "active": false,
              "pk": false,
              "fk": true,
              "pfk": false,
              "widthName": 60,
              "widthComment": 60,
              "widthDataType": 60,
              "widthDefault": 60
            },
            "id": "b4671ddd-304f-447d-87d1-3c0b47b214a9"
          },
          {
            "name": "nama_pelanggan",
            "comment": "",
            "dataType": "VARCHAR(40)",
            "default": "",
            "option": {
              "autoIncrement": false,
              "primaryKey": false,
              "unique": false,
              "notNull": false
            },
            "ui": {
              "active": false,
              "pk": false,
              "fk": false,
              "pfk": false,
              "widthName": 103,
              "widthComment": 60,
              "widthDataType": 87,
              "widthDefault": 60
            },
            "id": "0e2983c8-1aee-4eab-a6da-c3ece3ba99fe"
          },
          {
            "name": "kuatitas",
            "comment": "",
            "dataType": "INTEGER",
            "default": "",
            "option": {
              "autoIncrement": false,
              "primaryKey": false,
              "unique": false,
              "notNull": false
            },
            "ui": {
              "active": false,
              "pk": false,
              "fk": false,
              "pfk": false,
              "widthName": 60,
              "widthComment": 60,
              "widthDataType": 60,
              "widthDefault": 60
            },
            "id": "d9571d0d-5ff5-41d9-9075-ca7b32751bee"
          },
          {
            "name": "total",
            "comment": "",
            "dataType": "BIGINT",
            "default": "",
            "option": {
              "autoIncrement": false,
              "primaryKey": false,
              "unique": false,
              "notNull": false
            },
            "ui": {
              "active": false,
              "pk": false,
              "fk": false,
              "pfk": false,
              "widthName": 60,
              "widthComment": 60,
              "widthDataType": 60,
              "widthDefault": 60
            },
            "id": "e0aa1025-30c4-4b61-bffd-37d1c6f365af"
          }
        ],
        "ui": {
          "active": false,
          "left": 568,
          "top": 25.333333333333343,
          "zIndex": 3,
          "widthName": 63,
          "widthComment": 60
        },
        "id": "40792a22-07b7-4cd5-97df-0c4d827e4b6a"
      },
      {
        "name": "transaksi",
        "comment": "",
        "columns": [
          {
            "name": "id",
            "comment": "",
            "dataType": "INTEGER",
            "default": "",
            "option": {
              "autoIncrement": false,
              "primaryKey": true,
              "unique": false,
              "notNull": true
            },
            "ui": {
              "active": false,
              "pk": true,
              "fk": false,
              "pfk": false,
              "widthName": 60,
              "widthComment": 60,
              "widthDataType": 60,
              "widthDefault": 60
            },
            "id": "6e67501c-df44-4d22-bf64-08799cb0777d"
          },
          {
            "name": "id_pelanggan",
            "comment": "",
            "dataType": "INTEGER",
            "default": "",
            "option": {
              "autoIncrement": false,
              "primaryKey": false,
              "unique": false,
              "notNull": true
            },
            "ui": {
              "active": false,
              "pk": false,
              "fk": true,
              "pfk": false,
              "widthName": 80,
              "widthComment": 60,
              "widthDataType": 60,
              "widthDefault": 60
            },
            "id": "100935ba-ec0c-47be-80fb-d1046227b1de"
          },
          {
            "name": "tanggal_transaksi",
            "comment": "",
            "dataType": "DATE",
            "default": "",
            "option": {
              "autoIncrement": false,
              "primaryKey": false,
              "unique": false,
              "notNull": true
            },
            "ui": {
              "active": false,
              "pk": false,
              "fk": false,
              "pfk": false,
              "widthName": 104,
              "widthComment": 60,
              "widthDataType": 60,
              "widthDefault": 60
            },
            "id": "da0455e6-2803-42b5-8296-5d59fab50eda"
          },
          {
            "name": "kasir",
            "comment": "",
            "dataType": "VARCHAR(40)",
            "default": "",
            "option": {
              "autoIncrement": false,
              "primaryKey": false,
              "unique": false,
              "notNull": true
            },
            "ui": {
              "active": false,
              "pk": false,
              "fk": false,
              "pfk": false,
              "widthName": 60,
              "widthComment": 60,
              "widthDataType": 87,
              "widthDefault": 60
            },
            "id": "fe4f86d7-0295-41c4-aa10-c8383c9d4fd2"
          }
        ],
        "ui": {
          "active": false,
          "left": 824.799991245269,
          "top": 341.066670586268,
          "zIndex": 4,
          "widthName": 60,
          "widthComment": 60
        },
        "id": "664518c3-e2ad-4d9c-a981-5f699b1cd40a"
      },
      {
        "name": "pengiriman",
        "comment": "",
        "columns": [
          {
            "name": "id",
            "comment": "",
            "dataType": "INTEGER",
            "default": "",
            "option": {
              "autoIncrement": false,
              "primaryKey": true,
              "unique": false,
              "notNull": true
            },
            "ui": {
              "active": false,
              "pk": true,
              "fk": false,
              "pfk": false,
              "widthName": 60,
              "widthComment": 60,
              "widthDataType": 60,
              "widthDefault": 60
            },
            "id": "9063e7e4-1d4d-4645-9ffa-b97e48a94b43"
          },
          {
            "name": "id_transaksi",
            "comment": "",
            "dataType": "INTEGER",
            "default": "",
            "option": {
              "autoIncrement": false,
              "primaryKey": false,
              "unique": false,
              "notNull": true
            },
            "ui": {
              "active": false,
              "pk": false,
              "fk": true,
              "pfk": false,
              "widthName": 72,
              "widthComment": 60,
              "widthDataType": 60,
              "widthDefault": 60
            },
            "id": "85d39803-e844-4710-9a98-9875ac9374f9"
          },
          {
            "name": "id_pelanggan",
            "comment": "",
            "dataType": "INTEGER",
            "default": "",
            "option": {
              "autoIncrement": false,
              "primaryKey": false,
              "unique": false,
              "notNull": true
            },
            "ui": {
              "active": false,
              "pk": false,
              "fk": true,
              "pfk": false,
              "widthName": 80,
              "widthComment": 60,
              "widthDataType": 60,
              "widthDefault": 60
            },
            "id": "fe8faf97-13e8-448f-85f7-0b9676225c0a"
          },
          {
            "name": "status",
            "comment": "",
            "dataType": "VARCHAR(40)",
            "default": "",
            "option": {
              "autoIncrement": false,
              "primaryKey": false,
              "unique": false,
              "notNull": true
            },
            "ui": {
              "active": false,
              "pk": false,
              "fk": false,
              "pfk": false,
              "widthName": 60,
              "widthComment": 60,
              "widthDataType": 87,
              "widthDefault": 60
            },
            "id": "ffe9490e-e70b-4575-aed5-a9009344511a"
          },
          {
            "name": "kurir",
            "comment": "",
            "dataType": "VARCHAR(30)",
            "default": "",
            "option": {
              "autoIncrement": false,
              "primaryKey": false,
              "unique": false,
              "notNull": true
            },
            "ui": {
              "active": false,
              "pk": false,
              "fk": false,
              "pfk": false,
              "widthName": 60,
              "widthComment": 60,
              "widthDataType": 87,
              "widthDefault": 60
            },
            "id": "810e39c6-1c5c-44db-aa66-33f4b1f1a7da"
          },
          {
            "name": "tanggal_pengiriman",
            "comment": "",
            "dataType": "DATE",
            "default": "",
            "option": {
              "autoIncrement": false,
              "primaryKey": false,
              "unique": false,
              "notNull": true
            },
            "ui": {
              "active": false,
              "pk": false,
              "fk": false,
              "pfk": false,
              "widthName": 116,
              "widthComment": 60,
              "widthDataType": 60,
              "widthDefault": 60
            },
            "id": "56d569c6-624a-4421-91f6-1b6a6f8de589"
          }
        ],
        "ui": {
          "active": false,
          "left": 291.59999350547764,
          "top": 512.2666709009802,
          "zIndex": 5,
          "widthName": 67,
          "widthComment": 60
        },
        "id": "15f7e903-c861-4ac1-9f0d-bd414d9a0370"
      }
    ],
    "indexes": []
  },
  "memo": {
    "memos": []
  },
  "relationship": {
    "relationships": [
      {
        "identification": false,
        "relationshipType": "OneN",
        "startRelationshipType": "Dash",
        "start": {
          "tableId": "90ff89e5-03fe-4cae-8ec6-e0778839939e",
          "columnIds": [
            "d45483b2-7fc5-48f1-b2a6-2595f6a93538"
          ],
          "x": 233.19999988555918,
          "y": 283.60000022888187,
          "direction": "top"
        },
        "end": {
          "tableId": "af6b70f4-1c4a-4a01-868a-f4a77ea6c6cd",
          "columnIds": [
            "da41f13e-be46-4fe9-b2cc-750ab4ad9761"
          ],
          "x": 236.66666666666666,
          "y": 183,
          "direction": "bottom"
        },
        "constraintName": "fk_tipe_barang_to_barang",
        "id": "df4bbdea-42c2-430c-8eb2-d3fbeaf3a294"
      },
      {
        "identification": false,
        "relationshipType": "OneN",
        "startRelationshipType": "Dash",
        "start": {
          "tableId": "af6b70f4-1c4a-4a01-868a-f4a77ea6c6cd",
          "columnIds": [
            "d5b16485-4424-4417-b2e4-e9b13635a694"
          ],
          "x": 434.66666666666663,
          "y": 107.5,
          "direction": "right"
        },
        "end": {
          "tableId": "40792a22-07b7-4cd5-97df-0c4d827e4b6a",
          "columnIds": [
            "b4671ddd-304f-447d-87d1-3c0b47b214a9"
          ],
          "x": 568,
          "y": 68.20833333333334,
          "direction": "left"
        },
        "constraintName": "fk_barang_to_pelanggan",
        "id": "c6f46c0a-ac2e-47e9-9959-6dd8fc673fc8"
      },
      {
        "identification": false,
        "relationshipType": "OneN",
        "startRelationshipType": "Dash",
        "start": {
          "tableId": "40792a22-07b7-4cd5-97df-0c4d827e4b6a",
          "columnIds": [
            "c5dd9170-5659-4a08-bb08-a4169126270e"
          ],
          "x": 776.5,
          "y": 196.83333333333334,
          "direction": "bottom"
        },
        "end": {
          "tableId": "664518c3-e2ad-4d9c-a981-5f699b1cd40a",
          "columnIds": [
            "100935ba-ec0c-47be-80fb-d1046227b1de"
          ],
          "x": 824.799991245269,
          "y": 378.816670586268,
          "direction": "left"
        },
        "constraintName": "fk_pelanggan_to_transaksi",
        "id": "5589e058-fafb-41a5-8fd4-d0ab688b863b"
      },
      {
        "identification": false,
        "relationshipType": "OneN",
        "startRelationshipType": "Dash",
        "start": {
          "tableId": "664518c3-e2ad-4d9c-a981-5f699b1cd40a",
          "columnIds": [
            "6e67501c-df44-4d22-bf64-08799cb0777d"
          ],
          "x": 824.799991245269,
          "y": 454.316670586268,
          "direction": "left"
        },
        "end": {
          "tableId": "15f7e903-c861-4ac1-9f0d-bd414d9a0370",
          "columnIds": [
            "85d39803-e844-4710-9a98-9875ac9374f9"
          ],
          "x": 721.5999935054776,
          "y": 608.2666709009802,
          "direction": "right"
        },
        "constraintName": "fk_transaksi_to_pengiriman",
        "id": "a3b272c2-555b-405d-8ad1-0d87d36a53d1"
      },
      {
        "identification": false,
        "relationshipType": "OneOnly",
        "startRelationshipType": "Dash",
        "start": {
          "tableId": "40792a22-07b7-4cd5-97df-0c4d827e4b6a",
          "columnIds": [
            "c5dd9170-5659-4a08-bb08-a4169126270e"
          ],
          "x": 568,
          "y": 153.95833333333334,
          "direction": "left"
        },
        "end": {
          "tableId": "15f7e903-c861-4ac1-9f0d-bd414d9a0370",
          "columnIds": [
            "fe8faf97-13e8-448f-85f7-0b9676225c0a"
          ],
          "x": 506.59999350547764,
          "y": 512.2666709009802,
          "direction": "top"
        },
        "constraintName": "fk_pelanggan_to_pengiriman",
        "id": "4b4cca72-cd0f-4675-b5b5-3ae09d8ed6f8"
      }
    ]
  }
}