{
  "canvas": {
    "version": "2.1.0",
    "width": 2000,
    "height": 2000,
    "scrollTop": -378.9999999999997,
    "scrollLeft": -807.3333333333334,
    "zoomLevel": 0.9,
    "show": {
      "tableComment": true,
      "columnComment": true,
      "columnDataType": true,
      "columnDefault": true,
      "columnAutoIncrement": false,
      "columnPrimaryKey": true,
      "columnUnique": false,
      "columnNotNull": true,
      "relationship": true
    },
    "database": "MySQL",
    "databaseName": "Faktur Barang",
    "canvasType": "ERD",
    "language": "GraphQL",
    "tableCase": "pascalCase",
    "columnCase": "camelCase",
    "highlightTheme": "VS2015",
    "bracketType": "none",
    "setting": {
      "relationshipDataTypeSync": true,
      "columnOrder": [
        "columnName",
        "columnDataType",
        "columnNotNull",
        "columnUnique",
        "columnAutoIncrement",
        "columnDefault",
        "columnComment"
      ]
    }
  },
  "table": {
    "tables": [
      {
        "name": "barang",
        "comment": "",
        "columns": [
          {
            "name": "id",
            "comment": "",
            "dataType": "INTEGER",
            "default": "",
            "option": {
              "autoIncrement": false,
              "primaryKey": true,
              "unique": false,
              "notNull": true
            },
            "ui": {
              "active": false,
              "pk": true,
              "fk": false,
              "pfk": false,
              "widthName": 60,
              "widthComment": 60,
              "widthDataType": 60,
              "widthDefault": 60
            },
            "id": "d5b16485-4424-4417-b2e4-e9b13635a694"
          },
          {
            "name": "tipe_barang_id",
            "comment": "",
            "dataType": "INTEGER",
            "default": "",
            "option": {
              "autoIncrement": false,
              "primaryKey": false,
              "unique": false,
              "notNull": true
            },
            "ui": {
              "active": false,
              "pk": false,
              "fk": true,
              "pfk": false,
              "widthName": 88,
              "widthComment": 60,
              "widthDataType": 60,
              "widthDefault": 60
            },
            "id": "da41f13e-be46-4fe9-b2cc-750ab4ad9761"
          },
          {
            "name": "nama_barang",
            "comment": "",
            "dataType": "VARCHAR(30)",
            "default": "",
            "option": {
              "autoIncrement": false,
              "primaryKey": false,
              "unique": false,
              "notNull": true
            },
            "ui": {
              "active": false,
              "pk": false,
              "fk": false,
              "pfk": false,
              "widthName": 82,
              "widthComment": 60,
              "widthDataType": 88,
              "widthDefault": 60
            },
            "id": "37bb6aec-03d0-46a1-9dda-e9b3d2c55bb7"
          },
          {
            "name": "harga",
            "comment": "",
            "dataType": "BIGINT",
            "default": "",
            "option": {
              "autoIncrement": false,
              "primaryKey": false,
              "unique": false,
              "notNull": true
            },
            "ui": {
              "active": false,
              "pk": false,
              "fk": false,
              "pfk": false,
              "widthName": 60,
              "widthComment": 60,
              "widthDataType": 60,
              "widthDefault": 60
            },
            "id": "b1a27bd1-eb82-46f4-9dd1-78b075c7a732"
          },
          {
            "name": "gambar",
            "comment": "jpg, png, max filesize 200",
            "dataType": "VARCHAR(255)",
            "default": "",
            "option": {
              "autoIncrement": false,
              "primaryKey": false,
              "unique": false,
              "notNull": false
            },
            "ui": {
              "active": false,
              "pk": false,
              "fk": false,
              "pfk": false,
              "widthName": 60,
              "widthComment": 120,
              "widthDataType": 95,
              "widthDefault": 60
            },
            "id": "75e659e1-a5fb-4ad2-8721-caa25e471ad2"
          }
        ],
        "ui": {
          "active": false,
          "left": 50.66666695276899,
          "top": 302.00000643730203,
          "zIndex": 4,
          "widthName": 60,
          "widthComment": 60
        },
        "id": "af6b70f4-1c4a-4a01-868a-f4a77ea6c6cd"
      },
      {
        "name": "tipe_barang",
        "comment": "",
        "columns": [
          {
            "name": "id",
            "comment": "",
            "dataType": "INTEGER",
            "default": "",
            "option": {
              "autoIncrement": false,
              "primaryKey": true,
              "unique": false,
              "notNull": true
            },
            "ui": {
              "active": false,
              "pk": true,
              "fk": false,
              "pfk": false,
              "widthName": 60,
              "widthComment": 60,
              "widthDataType": 60,
              "widthDefault": 60
            },
            "id": "d45483b2-7fc5-48f1-b2a6-2595f6a93538"
          },
          {
            "name": "tipe_barang",
            "comment": "",
            "dataType": "VARCHAR(50)",
            "default": "",
            "option": {
              "autoIncrement": false,
              "primaryKey": false,
              "unique": false,
              "notNull": true
            },
            "ui": {
              "active": false,
              "pk": false,
              "fk": false,
              "pfk": false,
              "widthName": 71,
              "widthComment": 60,
              "widthDataType": 88,
              "widthDefault": 60
            },
            "id": "0baffbd0-9618-49ca-98e1-138976024897"
          }
        ],
        "ui": {
          "active": false,
          "left": 102.53333350499474,
          "top": 60.26666145960504,
          "zIndex": 7,
          "widthName": 71,
          "widthComment": 60
        },
        "id": "90ff89e5-03fe-4cae-8ec6-e0778839939e"
      },
      {
        "name": "pelanggan",
        "comment": "",
        "columns": [
          {
            "name": "id",
            "comment": "",
            "dataType": "INTEGER",
            "default": "",
            "option": {
              "autoIncrement": false,
              "primaryKey": true,
              "unique": false,
              "notNull": true
            },
            "ui": {
              "active": false,
              "pk": true,
              "fk": false,
              "pfk": false,
              "widthName": 60,
              "widthComment": 60,
              "widthDataType": 60,
              "widthDefault": 60
            },
            "id": "c5dd9170-5659-4a08-bb08-a4169126270e"
          },
          {
            "name": "nama_pelanggan",
            "comment": "",
            "dataType": "VARCHAR(40)",
            "default": "",
            "option": {
              "autoIncrement": false,
              "primaryKey": false,
              "unique": false,
              "notNull": true
            },
            "ui": {
              "active": false,
              "pk": false,
              "fk": false,
              "pfk": false,
              "widthName": 103,
              "widthComment": 60,
              "widthDataType": 88,
              "widthDefault": 60
            },
            "id": "0e2983c8-1aee-4eab-a6da-c3ece3ba99fe"
          },
          {
            "name": "photo",
            "comment": "jpg, png, gif max filesize 100",
            "dataType": "VARCHAR(255)",
            "default": "",
            "option": {
              "autoIncrement": false,
              "primaryKey": false,
              "unique": false,
              "notNull": false
            },
            "ui": {
              "active": false,
              "pk": false,
              "fk": false,
              "pfk": false,
              "widthName": 60,
              "widthComment": 120,
              "widthDataType": 95,
              "widthDefault": 60
            },
            "id": "05a36a2e-5aad-4638-a4d8-4bda03a8e751"
          }
        ],
        "ui": {
          "active": false,
          "left": 569.2000000286102,
          "top": 58.93333413441983,
          "zIndex": 8,
          "widthName": 63,
          "widthComment": 60
        },
        "id": "40792a22-07b7-4cd5-97df-0c4d827e4b6a"
      },
      {
        "name": "transaksi",
        "comment": "",
        "columns": [
          {
            "name": "id",
            "comment": "",
            "dataType": "INTEGER",
            "default": "",
            "option": {
              "autoIncrement": false,
              "primaryKey": true,
              "unique": false,
              "notNull": true
            },
            "ui": {
              "active": false,
              "pk": true,
              "fk": false,
              "pfk": false,
              "widthName": 60,
              "widthComment": 60,
              "widthDataType": 60,
              "widthDefault": 60
            },
            "id": "6e67501c-df44-4d22-bf64-08799cb0777d"
          },
          {
            "name": "pelanggan_id",
            "comment": "",
            "dataType": "INTEGER",
            "default": "",
            "option": {
              "autoIncrement": false,
              "primaryKey": false,
              "unique": false,
              "notNull": true
            },
            "ui": {
              "active": false,
              "pk": false,
              "fk": true,
              "pfk": false,
              "widthName": 80,
              "widthComment": 60,
              "widthDataType": 60,
              "widthDefault": 60
            },
            "id": "100935ba-ec0c-47be-80fb-d1046227b1de"
          },
          {
            "name": "kasir_id",
            "comment": "",
            "dataType": "INTEGER",
            "default": "",
            "option": {
              "autoIncrement": false,
              "primaryKey": false,
              "unique": false,
              "notNull": true
            },
            "ui": {
              "active": false,
              "pk": false,
              "fk": true,
              "pfk": false,
              "widthName": 60,
              "widthComment": 60,
              "widthDataType": 60,
              "widthDefault": 60
            },
            "id": "315144e6-8752-486b-84ce-898e034881df"
          },
          {
            "name": "tanggal_transaksi",
            "comment": "",
            "dataType": "DATE",
            "default": "",
            "option": {
              "autoIncrement": false,
              "primaryKey": false,
              "unique": false,
              "notNull": true
            },
            "ui": {
              "active": false,
              "pk": false,
              "fk": false,
              "pfk": false,
              "widthName": 104,
              "widthComment": 60,
              "widthDataType": 60,
              "widthDefault": 60
            },
            "id": "da0455e6-2803-42b5-8296-5d59fab50eda"
          },
          {
            "name": "total",
            "comment": "",
            "dataType": "BIGINT",
            "default": "",
            "option": {
              "autoIncrement": false,
              "primaryKey": false,
              "unique": false,
              "notNull": true
            },
            "ui": {
              "active": false,
              "pk": false,
              "fk": false,
              "pfk": false,
              "widthName": 60,
              "widthComment": 60,
              "widthDataType": 60,
              "widthDefault": 60
            },
            "id": "8cc69f66-47a3-416d-b219-6f89276f1585"
          }
        ],
        "ui": {
          "active": false,
          "left": 611.1999861526488,
          "top": 347.0666707293194,
          "zIndex": 6,
          "widthName": 60,
          "widthComment": 60
        },
        "id": "664518c3-e2ad-4d9c-a981-5f699b1cd40a"
      },
      {
        "name": "pengiriman",
        "comment": "",
        "columns": [
          {
            "name": "id",
            "comment": "",
            "dataType": "INTEGER",
            "default": "",
            "option": {
              "autoIncrement": false,
              "primaryKey": true,
              "unique": false,
              "notNull": true
            },
            "ui": {
              "active": false,
              "pk": true,
              "fk": false,
              "pfk": false,
              "widthName": 60,
              "widthComment": 60,
              "widthDataType": 60,
              "widthDefault": 60
            },
            "id": "9063e7e4-1d4d-4645-9ffa-b97e48a94b43"
          },
          {
            "name": "kurir_id",
            "comment": "",
            "dataType": "INTEGER",
            "default": "",
            "option": {
              "autoIncrement": false,
              "primaryKey": false,
              "unique": false,
              "notNull": true
            },
            "ui": {
              "active": false,
              "pk": false,
              "fk": true,
              "pfk": false,
              "widthName": 60,
              "widthComment": 60,
              "widthDataType": 60,
              "widthDefault": 60
            },
            "id": "5f7c7ac3-57df-48fe-a71d-a63be40c4626"
          },
          {
            "name": "transaksi_id",
            "comment": "",
            "dataType": "INTEGER",
            "default": "",
            "option": {
              "autoIncrement": false,
              "primaryKey": false,
              "unique": false,
              "notNull": true
            },
            "ui": {
              "active": false,
              "pk": false,
              "fk": true,
              "pfk": false,
              "widthName": 71,
              "widthComment": 60,
              "widthDataType": 60,
              "widthDefault": 60
            },
            "id": "85d39803-e844-4710-9a98-9875ac9374f9"
          },
          {
            "name": "pengiriman_status_id",
            "comment": "",
            "dataType": "CHAR(1)",
            "default": "",
            "option": {
              "autoIncrement": false,
              "primaryKey": false,
              "unique": false,
              "notNull": true
            },
            "ui": {
              "active": false,
              "pk": false,
              "fk": true,
              "pfk": false,
              "widthName": 125,
              "widthComment": 60,
              "widthDataType": 60,
              "widthDefault": 60
            },
            "id": "4dfb041c-d28f-417d-b044-e074025ab18b"
          },
          {
            "name": "tanggal_pengiriman",
            "comment": "",
            "dataType": "DATE",
            "default": "",
            "option": {
              "autoIncrement": false,
              "primaryKey": false,
              "unique": false,
              "notNull": true
            },
            "ui": {
              "active": false,
              "pk": false,
              "fk": false,
              "pfk": false,
              "widthName": 116,
              "widthComment": 60,
              "widthDataType": 60,
              "widthDefault": 60
            },
            "id": "56d569c6-624a-4421-91f6-1b6a6f8de589"
          }
        ],
        "ui": {
          "active": false,
          "left": 1106.0333479120989,
          "top": 294.2666664346056,
          "zIndex": 9,
          "widthName": 66,
          "widthComment": 60
        },
        "id": "15f7e903-c861-4ac1-9f0d-bd414d9a0370"
      },
      {
        "name": "kurir",
        "comment": "",
        "columns": [
          {
            "name": "id",
            "comment": "",
            "dataType": "INTEGER",
            "default": "",
            "option": {
              "autoIncrement": false,
              "primaryKey": true,
              "unique": false,
              "notNull": true
            },
            "ui": {
              "active": false,
              "pk": true,
              "fk": false,
              "pfk": false,
              "widthName": 60,
              "widthComment": 60,
              "widthDataType": 60,
              "widthDefault": 60
            },
            "id": "5741afbf-3780-49f3-9534-8c910907d364"
          },
          {
            "name": "nama_kurir",
            "comment": "",
            "dataType": "VARCHAR(30)",
            "default": "",
            "option": {
              "autoIncrement": false,
              "primaryKey": false,
              "unique": false,
              "notNull": true
            },
            "ui": {
              "active": false,
              "pk": false,
              "fk": false,
              "pfk": false,
              "widthName": 67,
              "widthComment": 60,
              "widthDataType": 88,
              "widthDefault": 60
            },
            "id": "ace21deb-1ba4-446e-99e9-6ebe70da5fa3"
          },
          {
            "name": "logo",
            "comment": "",
            "dataType": "VARCHAR(255)",
            "default": "",
            "option": {
              "autoIncrement": false,
              "primaryKey": false,
              "unique": false,
              "notNull": false
            },
            "ui": {
              "active": false,
              "pk": false,
              "fk": false,
              "pfk": false,
              "widthName": 60,
              "widthComment": 60,
              "widthDataType": 95,
              "widthDefault": 60
            },
            "id": "de0454cd-2284-4f4c-ba81-f0fc18eb12ee"
          }
        ],
        "ui": {
          "active": false,
          "left": 1158.1999890136701,
          "top": 52.533318198521954,
          "zIndex": 3,
          "widthName": 60,
          "widthComment": 60
        },
        "id": "afc94c05-0036-4bfd-a78d-3aaf0d59d023"
      },
      {
        "name": "kasir",
        "comment": "",
        "columns": [
          {
            "name": "id",
            "comment": "",
            "dataType": "INTEGER",
            "default": "",
            "option": {
              "autoIncrement": false,
              "primaryKey": true,
              "unique": false,
              "notNull": true
            },
            "ui": {
              "active": false,
              "pk": true,
              "fk": false,
              "pfk": false,
              "widthName": 60,
              "widthComment": 60,
              "widthDataType": 60,
              "widthDefault": 60
            },
            "id": "a5f2e64e-0485-4a98-b7fe-d39080725c62"
          },
          {
            "name": "nama_kasir",
            "comment": "",
            "dataType": "VARCHAR(40)",
            "default": "",
            "option": {
              "autoIncrement": false,
              "primaryKey": false,
              "unique": false,
              "notNull": true
            },
            "ui": {
              "active": false,
              "pk": false,
              "fk": false,
              "pfk": false,
              "widthName": 69,
              "widthComment": 60,
              "widthDataType": 88,
              "widthDefault": 60
            },
            "id": "002e93e4-c7fa-4ebd-b07d-8a19ad953ceb"
          },
          {
            "name": "foto",
            "comment": "jpg,png maxfile 1mb",
            "dataType": "VARCHAR(255)",
            "default": "",
            "option": {
              "autoIncrement": false,
              "primaryKey": false,
              "unique": false,
              "notNull": false
            },
            "ui": {
              "active": false,
              "pk": false,
              "fk": false,
              "pfk": false,
              "widthName": 60,
              "widthComment": 119,
              "widthDataType": 95,
              "widthDefault": 60
            },
            "id": "2cec76fe-bdac-4a5d-a13a-cc58411f78ea"
          }
        ],
        "ui": {
          "active": false,
          "left": 1005.9999955654142,
          "top": 772.1333414586377,
          "zIndex": 5,
          "widthName": 60,
          "widthComment": 60
        },
        "id": "92078ba6-126d-4997-8d78-bb9b5308e1ef"
      },
      {
        "name": "pengiriman_status",
        "comment": "",
        "columns": [
          {
            "name": "id",
            "comment": "",
            "dataType": "CHAR(1)",
            "default": "",
            "option": {
              "autoIncrement": false,
              "primaryKey": true,
              "unique": false,
              "notNull": true
            },
            "ui": {
              "active": false,
              "pk": true,
              "fk": false,
              "pfk": false,
              "widthName": 60,
              "widthComment": 60,
              "widthDataType": 60,
              "widthDefault": 60
            },
            "id": "d6a9a20b-906b-40ad-9778-62559e8e6d22"
          },
          {
            "name": "nama_status",
            "comment": "",
            "dataType": "VARCHAR(20)",
            "default": "",
            "option": {
              "autoIncrement": false,
              "primaryKey": false,
              "unique": false,
              "notNull": true
            },
            "ui": {
              "active": false,
              "pk": false,
              "fk": false,
              "pfk": false,
              "widthName": 77,
              "widthComment": 60,
              "widthDataType": 88,
              "widthDefault": 60
            },
            "id": "7a8d0136-76ce-40ab-98cb-aca544a9c0dd"
          }
        ],
        "ui": {
          "active": false,
          "left": 1509.1999975967394,
          "top": 599.2000119018562,
          "zIndex": 1,
          "widthName": 108,
          "widthComment": 60
        },
        "id": "d9318fec-cfdd-47cf-9a51-8c1b0973f030"
      },
      {
        "name": "transaksi_detail",
        "comment": "",
        "columns": [
          {
            "name": "id",
            "comment": "",
            "dataType": "INTEGER",
            "default": "",
            "option": {
              "autoIncrement": false,
              "primaryKey": true,
              "unique": false,
              "notNull": true
            },
            "ui": {
              "active": false,
              "pk": true,
              "fk": false,
              "pfk": false,
              "widthName": 60,
              "widthComment": 60,
              "widthDataType": 60,
              "widthDefault": 60
            },
            "id": "5e74d3fd-83f2-4b6e-a750-dfc2749932ba"
          },
          {
            "name": "barang_id",
            "comment": "",
            "dataType": "INTEGER",
            "default": "",
            "option": {
              "autoIncrement": false,
              "primaryKey": false,
              "unique": false,
              "notNull": true
            },
            "ui": {
              "active": false,
              "pk": false,
              "fk": true,
              "pfk": false,
              "widthName": 60,
              "widthComment": 60,
              "widthDataType": 60,
              "widthDefault": 60
            },
            "id": "d0f48d33-1898-4921-adb6-b16a38ba8bc8"
          },
          {
            "name": "transaksi_id",
            "comment": "",
            "dataType": "INTEGER",
            "default": "",
            "option": {
              "autoIncrement": false,
              "primaryKey": false,
              "unique": false,
              "notNull": true
            },
            "ui": {
              "active": false,
              "pk": false,
              "fk": true,
              "pfk": false,
              "widthName": 71,
              "widthComment": 60,
              "widthDataType": 60,
              "widthDefault": 60
            },
            "id": "7895374e-3b8c-4963-993c-61457011d1de"
          },
          {
            "name": "kuantitas",
            "comment": "",
            "dataType": "INTEGER",
            "default": "",
            "option": {
              "autoIncrement": false,
              "primaryKey": false,
              "unique": false,
              "notNull": true
            },
            "ui": {
              "active": false,
              "pk": false,
              "fk": false,
              "pfk": false,
              "widthName": 60,
              "widthComment": 60,
              "widthDataType": 60,
              "widthDefault": 60
            },
            "id": "f263eff6-4475-4cc9-bd66-90d14014a495"
          }
        ],
        "ui": {
          "active": false,
          "left": 70.39999691009507,
          "top": 684.400013933182,
          "zIndex": 2,
          "widthName": 93,
          "widthComment": 60
        },
        "id": "ba63e882-726c-42ff-a0c2-a8ecacffc3ee"
      },
      {
        "name": "upload_dump",
        "comment": "",
        "columns": [
          {
            "name": "id",
            "comment": "",
            "dataType": "INTEGER",
            "default": "",
            "option": {
              "autoIncrement": false,
              "primaryKey": false,
              "unique": false,
              "notNull": true
            },
            "ui": {
              "active": false,
              "pk": false,
              "fk": false,
              "pfk": false,
              "widthName": 60,
              "widthComment": 60,
              "widthDataType": 60,
              "widthDefault": 60
            },
            "id": "5c63f45b-5bf8-4308-8b4f-48aafe221ade"
          },
          {
            "name": "filename",
            "comment": "",
            "dataType": "VARCHAR(255)",
            "default": "",
            "option": {
              "autoIncrement": false,
              "primaryKey": false,
              "unique": false,
              "notNull": true
            },
            "ui": {
              "active": false,
              "pk": false,
              "fk": false,
              "pfk": false,
              "widthName": 60,
              "widthComment": 60,
              "widthDataType": 95,
              "widthDefault": 60
            },
            "id": "4e2afbf6-a3c9-4cf3-ac0a-3a982d6f4208"
          },
          {
            "name": "file_type",
            "comment": "",
            "dataType": "VARCHAR(255)",
            "default": "",
            "option": {
              "autoIncrement": false,
              "primaryKey": false,
              "unique": false,
              "notNull": true
            },
            "ui": {
              "active": false,
              "pk": false,
              "fk": false,
              "pfk": false,
              "widthName": 60,
              "widthComment": 60,
              "widthDataType": 95,
              "widthDefault": 60
            },
            "id": "78ff4db6-4157-4c79-a286-5e37d0d06a39"
          },
          {
            "name": "file_size",
            "comment": "",
            "dataType": "INTEGER",
            "default": "",
            "option": {
              "autoIncrement": false,
              "primaryKey": false,
              "unique": false,
              "notNull": true
            },
            "ui": {
              "active": false,
              "pk": false,
              "fk": false,
              "pfk": false,
              "widthName": 60,
              "widthComment": 60,
              "widthDataType": 60,
              "widthDefault": 60
            },
            "id": "52259502-2327-4aa7-8563-5d51ec079710"
          },
          {
            "name": "category",
            "comment": "",
            "dataType": "VARCHAR(255)",
            "default": "",
            "option": {
              "autoIncrement": false,
              "primaryKey": false,
              "unique": false,
              "notNull": true
            },
            "ui": {
              "active": false,
              "pk": false,
              "fk": false,
              "pfk": false,
              "widthName": 60,
              "widthComment": 60,
              "widthDataType": 95,
              "widthDefault": 60
            },
            "id": "8f01886f-0605-401b-8d7b-b089a0b3d4e3"
          },
          {
            "name": "folder",
            "comment": "",
            "dataType": "VARCHAR(255)",
            "default": "",
            "option": {
              "autoIncrement": false,
              "primaryKey": false,
              "unique": false,
              "notNull": true
            },
            "ui": {
              "active": false,
              "pk": false,
              "fk": false,
              "pfk": false,
              "widthName": 60,
              "widthComment": 60,
              "widthDataType": 95,
              "widthDefault": 60
            },
            "id": "9d5d1102-5882-498c-9cc4-318c7a17ffa1"
          },
          {
            "name": "uploader_ip",
            "comment": "",
            "dataType": "VARCHAR(255)",
            "default": "",
            "option": {
              "autoIncrement": false,
              "primaryKey": false,
              "unique": false,
              "notNull": true
            },
            "ui": {
              "active": false,
              "pk": false,
              "fk": false,
              "pfk": false,
              "widthName": 70,
              "widthComment": 60,
              "widthDataType": 95,
              "widthDefault": 60
            },
            "id": "8347b275-2705-4692-98f9-dccdeacc5de6"
          },
          {
            "name": "rel_path",
            "comment": "",
            "dataType": "VARCHAR(255)",
            "default": "",
            "option": {
              "autoIncrement": false,
              "primaryKey": false,
              "unique": false,
              "notNull": true
            },
            "ui": {
              "active": false,
              "pk": false,
              "fk": false,
              "pfk": false,
              "widthName": 60,
              "widthComment": 60,
              "widthDataType": 95,
              "widthDefault": 60
            },
            "id": "232c0008-b4df-4e3f-9bbf-74af0ce119fc"
          },
          {
            "name": "abs_path",
            "comment": "",
            "dataType": "VARCHAR(255)",
            "default": "",
            "option": {
              "autoIncrement": false,
              "primaryKey": false,
              "unique": false,
              "notNull": true
            },
            "ui": {
              "active": false,
              "pk": false,
              "fk": false,
              "pfk": false,
              "widthName": 60,
              "widthComment": 60,
              "widthDataType": 95,
              "widthDefault": 60
            },
            "id": "551667b1-f2cd-43dd-be84-198498cef3df"
          },
          {
            "name": "upload_status",
            "comment": "",
            "dataType": "TINYINT",
            "default": "1",
            "option": {
              "autoIncrement": false,
              "primaryKey": false,
              "unique": false,
              "notNull": true
            },
            "ui": {
              "active": false,
              "pk": false,
              "fk": false,
              "pfk": false,
              "widthName": 83,
              "widthComment": 60,
              "widthDataType": 60,
              "widthDefault": 60
            },
            "id": "5aa327cd-5aca-4cd6-b9e9-2680cb3d133d"
          },
          {
            "name": "link_status",
            "comment": "",
            "dataType": "TINYINT",
            "default": "0",
            "option": {
              "autoIncrement": false,
              "primaryKey": false,
              "unique": false,
              "notNull": true
            },
            "ui": {
              "active": false,
              "pk": false,
              "fk": false,
              "pfk": false,
              "widthName": 63,
              "widthComment": 60,
              "widthDataType": 60,
              "widthDefault": 60
            },
            "id": "66bf75e8-39a9-4541-855b-89ad1b2fb581"
          },
          {
            "name": "created_at",
            "comment": "",
            "dataType": "TIMESTAMP",
            "default": "",
            "option": {
              "autoIncrement": false,
              "primaryKey": false,
              "unique": false,
              "notNull": true
            },
            "ui": {
              "active": false,
              "pk": false,
              "fk": false,
              "pfk": false,
              "widthName": 63,
              "widthComment": 60,
              "widthDataType": 77,
              "widthDefault": 60
            },
            "id": "41a5afef-82b5-4553-b0a3-16ff839837ce"
          },
          {
            "name": "updated_at",
            "comment": "",
            "dataType": "TIMESTAMP",
            "default": "",
            "option": {
              "autoIncrement": false,
              "primaryKey": false,
              "unique": false,
              "notNull": true
            },
            "ui": {
              "active": false,
              "pk": false,
              "fk": false,
              "pfk": false,
              "widthName": 67,
              "widthComment": 60,
              "widthDataType": 77,
              "widthDefault": 60
            },
            "id": "ffcf5f66-c32c-43f4-bdb0-b1ac71ae5d3e"
          }
        ],
        "ui": {
          "active": false,
          "left": 1545.3333333333333,
          "top": 235.77777777777763,
          "zIndex": 10,
          "widthName": 81,
          "widthComment": 60
        },
        "id": "d4933348-a715-4301-b483-cbbd895c01ce"
      }
    ],
    "indexes": []
  },
  "memo": {
    "memos": []
  },
  "relationship": {
    "relationships": [
      {
        "identification": false,
        "relationshipType": "OneN",
        "startRelationshipType": "Dash",
        "start": {
          "tableId": "90ff89e5-03fe-4cae-8ec6-e0778839939e",
          "columnIds": [
            "d45483b2-7fc5-48f1-b2a6-2595f6a93538"
          ],
          "x": 295.53333350499474,
          "y": 170.26666145960505,
          "direction": "bottom"
        },
        "end": {
          "tableId": "af6b70f4-1c4a-4a01-868a-f4a77ea6c6cd",
          "columnIds": [
            "da41f13e-be46-4fe9-b2cc-750ab4ad9761"
          ],
          "x": 285.666666952769,
          "y": 302.00000643730203,
          "direction": "top"
        },
        "constraintName": "fk_tipe_barang_to_barang",
        "id": "df4bbdea-42c2-430c-8eb2-d3fbeaf3a294"
      },
      {
        "identification": false,
        "relationshipType": "OneN",
        "startRelationshipType": "Dash",
        "start": {
          "tableId": "40792a22-07b7-4cd5-97df-0c4d827e4b6a",
          "columnIds": [
            "c5dd9170-5659-4a08-bb08-a4169126270e"
          ],
          "x": 811.7000000286102,
          "y": 189.43333413441982,
          "direction": "bottom"
        },
        "end": {
          "tableId": "664518c3-e2ad-4d9c-a981-5f699b1cd40a",
          "columnIds": [
            "100935ba-ec0c-47be-80fb-d1046227b1de"
          ],
          "x": 806.6999861526488,
          "y": 347.0666707293194,
          "direction": "top"
        },
        "constraintName": "fk_pelanggan_to_transaksi",
        "id": "5589e058-fafb-41a5-8fd4-d0ab688b863b"
      },
      {
        "identification": false,
        "relationshipType": "OneOnly",
        "startRelationshipType": "Dash",
        "start": {
          "tableId": "664518c3-e2ad-4d9c-a981-5f699b1cd40a",
          "columnIds": [
            "6e67501c-df44-4d22-bf64-08799cb0777d"
          ],
          "x": 1002.1999861526488,
          "y": 432.8166707293194,
          "direction": "right"
        },
        "end": {
          "tableId": "15f7e903-c861-4ac1-9f0d-bd414d9a0370",
          "columnIds": [
            "85d39803-e844-4710-9a98-9875ac9374f9"
          ],
          "x": 1106.0333479120989,
          "y": 380.0166664346056,
          "direction": "left"
        },
        "constraintName": "fk_transaksi_to_pengiriman",
        "id": "a3b272c2-555b-405d-8ad1-0d87d36a53d1"
      },
      {
        "identification": false,
        "relationshipType": "OneN",
        "startRelationshipType": "Dash",
        "start": {
          "tableId": "92078ba6-126d-4997-8d78-bb9b5308e1ef",
          "columnIds": [
            "a5f2e64e-0485-4a98-b7fe-d39080725c62"
          ],
          "x": 1005.9999955654142,
          "y": 837.3833414586377,
          "direction": "left"
        },
        "end": {
          "tableId": "664518c3-e2ad-4d9c-a981-5f699b1cd40a",
          "columnIds": [
            "315144e6-8752-486b-84ce-898e034881df"
          ],
          "x": 806.6999861526488,
          "y": 518.5666707293194,
          "direction": "bottom"
        },
        "constraintName": "fk_kasir_to_transaksi",
        "id": "5acba3fe-609a-466b-a088-0a26b4851972"
      },
      {
        "identification": false,
        "relationshipType": "OneN",
        "startRelationshipType": "Dash",
        "start": {
          "tableId": "afc94c05-0036-4bfd-a78d-3aaf0d59d023",
          "columnIds": [
            "5741afbf-3780-49f3-9534-8c910907d364"
          ],
          "x": 1352.6999890136701,
          "y": 183.03331819852195,
          "direction": "bottom"
        },
        "end": {
          "tableId": "15f7e903-c861-4ac1-9f0d-bd414d9a0370",
          "columnIds": [
            "5f7c7ac3-57df-48fe-a71d-a63be40c4626"
          ],
          "x": 1312.0333479120989,
          "y": 294.2666664346056,
          "direction": "top"
        },
        "constraintName": "fk_kurir_to_pengiriman",
        "id": "aadc382f-e019-4319-bfad-749d0c8287cb"
      },
      {
        "identification": false,
        "relationshipType": "OneN",
        "startRelationshipType": "Dash",
        "start": {
          "tableId": "d9318fec-cfdd-47cf-9a51-8c1b0973f030",
          "columnIds": [
            "d6a9a20b-906b-40ad-9778-62559e8e6d22"
          ],
          "x": 1509.1999975967394,
          "y": 654.2000119018562,
          "direction": "left"
        },
        "end": {
          "tableId": "15f7e903-c861-4ac1-9f0d-bd414d9a0370",
          "columnIds": [
            "4dfb041c-d28f-417d-b044-e074025ab18b"
          ],
          "x": 1312.0333479120989,
          "y": 465.7666664346056,
          "direction": "bottom"
        },
        "constraintName": "fk_pengiriman_status_to_pengiriman",
        "id": "d56cddb5-cf94-4d07-b2f0-96468e5b68ab"
      },
      {
        "identification": false,
        "relationshipType": "OneN",
        "startRelationshipType": "Dash",
        "start": {
          "tableId": "af6b70f4-1c4a-4a01-868a-f4a77ea6c6cd",
          "columnIds": [
            "d5b16485-4424-4417-b2e4-e9b13635a694"
          ],
          "x": 285.666666952769,
          "y": 473.50000643730203,
          "direction": "bottom"
        },
        "end": {
          "tableId": "ba63e882-726c-42ff-a0c2-a8ecacffc3ee",
          "columnIds": [
            "d0f48d33-1898-4921-adb6-b16a38ba8bc8"
          ],
          "x": 249.39999691009507,
          "y": 684.400013933182,
          "direction": "top"
        },
        "constraintName": "fk_barang_to_transaksi_detail",
        "id": "39106b58-b655-4521-bb31-70170afdbb3e"
      },
      {
        "identification": false,
        "relationshipType": "OneN",
        "startRelationshipType": "Dash",
        "start": {
          "tableId": "664518c3-e2ad-4d9c-a981-5f699b1cd40a",
          "columnIds": [
            "6e67501c-df44-4d22-bf64-08799cb0777d"
          ],
          "x": 611.1999861526488,
          "y": 432.8166707293194,
          "direction": "left"
        },
        "end": {
          "tableId": "ba63e882-726c-42ff-a0c2-a8ecacffc3ee",
          "columnIds": [
            "7895374e-3b8c-4963-993c-61457011d1de"
          ],
          "x": 428.39999691009507,
          "y": 759.900013933182,
          "direction": "right"
        },
        "constraintName": "fk_transaksi_to_transaksi_detail",
        "id": "cacb42b7-72f7-4537-a5b1-d8e278903bfd"
      }
    ]
  }
}